{   
    "applicationName":"TSM Tablet",
    "applicationId":"co.in.temp.logixml",
    "icon": {
        "36":"resources/icons/Icon_Android36.png",
        "48":"resources/icons/Icon_Android48.png",
        "57": "resources/icons/Icon.png",
        "72": "resources/icons/Icon_ipad.png",
        "114": "resources/icons/Icon_2x.png",
        "144": "resources/icons/Icon_ipad_2x.png"       
    },
    "isIconPrecomposed": true,   
	"versionCode":"1",
    "versionString":"1.0",
	"inputPath":"./",
    "outputPath":"E:/XAMPP/htdocs/sencha/deploy",    
    "configuration":"Debug",
    "platform":"Android",
    "deviceType":"Universal",
    "certificatePath":"E:/my-release-key.keystore",
    "certificateAlias":"androiddebugkey",
    "sdkPath" :"E:/Android",
	"androidAPILevel": "16",	
    "permissions":[
            "INTERNET",
            "ACCESS_NETWORK_STATE"           
	],
    "orientations": [
         "landscapeLeft",
         "landscapeRight"
    ]
	
}